<?xml version="1.0" encoding="UTF-8" standalone="no"?>
<!-- Generator: Adobe Illustrator 16.0.0, SVG Export Plug-In . SVG Version: 6.00 Build 0)  -->

<svg
   version="1.1"
   id="Layer_1"
   x="0px"
   y="0px"
   width="1920px"
   height="1200px"
   viewBox="0 0 1920 1200"
   enable-background="new 0 0 1920 1200"
   xml:space="preserve"
   sodipodi:docname="emma_Ice_launch.svg"
   inkscape:version="1.1.1 (3bf5ae0d25, 2021-09-20)"
   xmlns:inkscape="http://www.inkscape.org/namespaces/inkscape"
   xmlns:sodipodi="http://sodipodi.sourceforge.net/DTD/sodipodi-0.dtd"
   xmlns:xlink="http://www.w3.org/1999/xlink"
   xmlns="http://www.w3.org/2000/svg"
   xmlns:svg="http://www.w3.org/2000/svg"><defs
   id="defs205" /><sodipodi:namedview
   id="namedview203"
   pagecolor="#ffffff"
   bordercolor="#666666"
   borderopacity="1.0"
   inkscape:pageshadow="2"
   inkscape:pageopacity="0.0"
   inkscape:pagecheckerboard="0"
   showgrid="false"
   inkscape:zoom="4.2333334"
   inkscape:cx="881.22045"
   inkscape:cy="188.74015"
   inkscape:window-width="1680"
   inkscape:window-height="997"
   inkscape:window-x="0"
   inkscape:window-y="25"
   inkscape:window-maximized="1"
   inkscape:current-layer="Layer_1"
   inkscape:snap-global="true" />
<g
   id="g200"
   inkscape:export-filename="/home/emmabuntus/Travail/EmmaDE5_64/emmabuntus_de_4/Ecrans/Fond_ecran_demarrage/theme_ice-main/PNG/Emma_launch.png"
   inkscape:export-xdpi="96"
   inkscape:export-ydpi="96">
	<defs
   id="defs3">
		<rect
   id="SVGID_1_"
   width="1920"
   height="1200" />
	</defs>
	<clipPath
   id="SVGID_2_">
		<use
   xlink:href="#SVGID_1_"
   overflow="visible"
   id="use5" />
	</clipPath>
	
		<linearGradient
   id="SVGID_3_"
   gradientUnits="userSpaceOnUse"
   x1="204.8931"
   y1="1613.9473"
   x2="1535.0167"
   y2="-144.5231"
   gradientTransform="matrix(1.1562 0.0057 0.0052 -1.0692 -9.5085 1543.1257)">
		<stop
   offset="0"
   style="stop-color:#689CAE"
   id="stop8" />
		<stop
   offset="0.1409"
   style="stop-color:#48839E"
   id="stop10" />
		<stop
   offset="0.3129"
   style="stop-color:#276A8E"
   id="stop12" />
		<stop
   offset="0.4567"
   style="stop-color:#135B84"
   id="stop14" />
		<stop
   offset="0.5538"
   style="stop-color:#0C5580"
   id="stop16" />
		<stop
   offset="0.5974"
   style="stop-color:#0A4E77"
   id="stop18" />
		<stop
   offset="0.7493"
   style="stop-color:#053A5E"
   id="stop20" />
		<stop
   offset="0.8878"
   style="stop-color:#012E4F"
   id="stop22" />
		<stop
   offset="1"
   style="stop-color:#002A4A"
   id="stop24" />
	</linearGradient>
	<path
   clip-path="url(#SVGID_2_)"
   fill="url(#SVGID_3_)"
   d="M970.16,1677.629c793.597,3.896,1410.215-143.013,1412.973-705.627   c2.771-562.626-151.641-1275.993-1353.526-1281.891l3.13,0.017c-1228.968-6.032-1363.29,705.918-1366.05,1268.541   c-2.76,562.619,566.291,715.591,1359.895,719.483L970.16,1677.629z"
   id="path27" />
	
		<linearGradient
   id="SVGID_4_"
   gradientUnits="userSpaceOnUse"
   x1="3064.5127"
   y1="-671.3018"
   x2="3151.9917"
   y2="-2531.7324"
   gradientTransform="matrix(-1.1562 -0.0057 -0.0047 0.9483 4620.9702 1564.0886)">
		<stop
   offset="0"
   style="stop-color:#00E3E0;stop-opacity:0"
   id="stop29" />
		<stop
   offset="0.1583"
   style="stop-color:#02E3E0;stop-opacity:0"
   id="stop31" />
		<stop
   offset="0.2153"
   style="stop-color:#09E4E0;stop-opacity:0"
   id="stop33" />
		<stop
   offset="0.256"
   style="stop-color:#14E6E0;stop-opacity:0"
   id="stop35" />
		<stop
   offset="0.2888"
   style="stop-color:#25E9E0;stop-opacity:0"
   id="stop37" />
		<stop
   offset="0.317"
   style="stop-color:#3BEDE0;stop-opacity:0"
   id="stop39" />
		<stop
   offset="0.3419"
   style="stop-color:#57F1E0;stop-opacity:0"
   id="stop41" />
		<stop
   offset="0.3644"
   style="stop-color:#77F6E0;stop-opacity:0"
   id="stop43" />
		<stop
   offset="0.3845"
   style="stop-color:#9BFCE0;stop-opacity:0"
   id="stop45" />
		<stop
   offset="0.3925"
   style="stop-color:#ACFFE0;stop-opacity:0"
   id="stop47" />
		<stop
   offset="0.6748"
   style="stop-color:#AEFEDE;stop-opacity:0.4647"
   id="stop49" />
		<stop
   offset="0.7764"
   style="stop-color:#B4FBD7;stop-opacity:0.632"
   id="stop51" />
		<stop
   offset="0.8489"
   style="stop-color:#C0F6CC;stop-opacity:0.7513"
   id="stop53" />
		<stop
   offset="0.9075"
   style="stop-color:#D0EEBB;stop-opacity:0.8478"
   id="stop55" />
		<stop
   offset="0.9571"
   style="stop-color:#E6E4A5;stop-opacity:0.9295"
   id="stop57" />
		<stop
   offset="1"
   style="stop-color:#FFD88B"
   id="stop59" />
	</linearGradient>
	<path
   clip-path="url(#SVGID_2_)"
   fill="url(#SVGID_4_)"
   d="M1077.288-852.973C283.691-856.867-332.846-726.918-335.294-227.945   c-2.456,498.986,152.349,1131.75,1354.242,1137.648l-3.138-0.019c1228.975,6.035,1362.898-625.313,1365.349-1124.301   c2.448-498.977-566.688-634.966-1360.289-638.859L1077.288-852.973z"
   id="path62" />
	<g
   clip-path="url(#SVGID_2_)"
   id="g92">
		<path
   fill="#FFFFFF"
   d="M716.066,147.959c0.028-1.768,0.028-3.069-0.031-5.146c-0.063-2.016-0.341-2.388-0.868-2.977    c0.961,0.062,2.295,0.062,3.287,0.062c0.744,0,1.488-0.03,2.23-0.03c0.744,0,1.457-0.031,2.201-0.031    c1.645,0,3.475,0.186,4.898,1.023c2.697,1.581,3.752,4.93,3.752,9.332c0,7.813-2.914,11.565-9.859,11.565    c-0.807,0-1.734-0.031-2.729-0.031c-1.304,0-2.915,0-3.876,0.031c0.961-1.147,0.961-1.427,0.992-6.666L716.066,147.959    L716.066,147.959z M719.477,152.58c0,1.302,0,4.992,0.095,5.612c0.094,0.868,0.435,1.209,1.982,1.209    c4.313,0,6.419-2.17,6.419-8.558c0-5.519-1.114-8.682-6.076-8.682c-0.774,0-1.611,0.062-2.325,0.124    c-0.063,1.52-0.095,1.922-0.095,6.016V152.58z"
   id="path64" />
		<path
   fill="#FFFFFF"
   d="M745.239,153.758h-8.248c0,1.519,0.063,5.922,4.896,5.922c1.861,0,2.698-0.527,3.352-0.931    c-0.188,0.962-0.342,1.675-0.313,2.791c-0.559,0.155-1.581,0.465-3.688,0.465c-4.744,0-7.565-2.48-7.565-8.774    c0-1.488,0-8.496,6.325-8.496c4.589,0,5.302,3.566,5.302,7.193L745.239,153.758z M742.231,151.619    c0.062-2.202-0.124-4.868-2.544-4.868c-2.2,0-2.729,2.295-2.761,4.868H742.231z"
   id="path66" />
		<path
   fill="#FFFFFF"
   d="M747.778,149.014c0-6.666,0-8.713-1.209-9.209c1.333-0.124,2.571-0.279,4.589-1.209    c-0.248,2.821-0.279,8.34-0.279,9.922c0.466-1.271,1.333-3.752,4.312-3.752c1.486,0,2.884,0.744,3.752,2.201    c0.897,1.551,1.021,4,1.021,5.116c0,1.829-0.311,4.248-1.209,6.046c-1.892,3.876-5.396,3.876-6.604,3.876    c-1.894,0-3.475-0.279-4.744-0.775c0.372-0.992,0.372-2.294,0.372-4.589L747.778,149.014L747.778,149.014z M753.855,147.587    c-0.278,0-1.736,0.031-2.39,2.232c-0.217,0.683-0.496,2.077-0.496,4.744c0,2.232,0,4.155,0.063,5.271    c0.402,0.094,1.021,0.187,1.52,0.187c3.599,0,4.123-3.876,4.123-6.759C756.677,150.843,756.212,147.587,753.855,147.587z"
   id="path68" />
		<path
   fill="#FFFFFF"
   d="M766.782,161.819c-0.62-0.093-1.057-0.154-1.953-0.154c-0.992,0-1.675,0.062-2.388,0.154    c0.31-0.589,0.434-0.867,0.524-2.883c0.125-2.76,0.155-10.139-0.062-11.689c-0.155-1.178-0.437-1.364-0.868-1.674    c2.543-0.248,3.256-0.435,4.434-0.992c-0.248,1.363-0.277,2.046-0.277,4.123C766.131,159.401,766.1,160.548,766.782,161.819z     M764.519,143.34c-1.114,0-1.734-0.807-1.734-1.984c0-0.869,0.278-2.109,1.768-2.109c1.396,0,1.674,1.055,1.674,1.984    C766.255,142.348,765.883,143.34,764.519,143.34z"
   id="path70" />
		<path
   fill="#FFFFFF"
   d="M775.586,151.184c0.837,0,1.333,0.063,1.923,0.094c0-2.419,0-4.124-2.574-4.124    c-1.61,0-3.191,0.558-4.4,1.612c-0.279-1.334-0.59-1.923-0.961-2.604c0.896-0.466,2.696-1.396,5.767-1.396    c4.651,0,5.271,2.325,5.271,4.682l-0.03,6.325c0,1.644,0,2.821,0.062,4c0.096,1.209,0.279,1.52,0.62,2.046    c-0.524-0.03-1.021-0.093-1.55-0.093c-0.931,0-1.488,0.063-2.047,0.093c-0.093-1.085-0.124-1.922-0.093-3.286    c-0.589,1.302-1.55,3.411-4.403,3.411c-0.248,0-1.021,0-1.798-0.342c-1.736-0.837-2.325-2.79-2.325-4.744    C769.044,152.704,771.648,151.184,775.586,151.184z M775.927,153.044c-1.178,0-3.782,0.218-3.782,3.132    c0,1.521,0.403,3.069,2.265,3.069c0.807,0,1.892-0.403,2.543-1.798c0.526-1.086,0.559-2.449,0.62-4.403H775.927z"
   id="path72" />
		<path
   fill="#FFFFFF"
   d="M795.427,158.75c0.031,1.055,0.031,2.171,0.466,3.069c-0.683-0.062-1.085-0.154-2.354-0.154    c-0.744,0-1.147,0.062-1.736,0.154c0.124-0.402,0.188-0.558,0.248-1.085c0.093-0.713,0.154-3.101,0.154-3.938v-3.349    c0-1.457,0-3.565-0.093-4.312c-0.063-0.527-0.219-1.954-2.017-1.954c-1.768,0-2.355,1.303-2.573,2.357    c-0.247,1.085-0.247,2.263-0.247,6.852c0.029,3.969,0.029,4.341,0.342,5.426c-0.527-0.062-1.181-0.123-2.109-0.123    c-0.744,0-1.24,0.03-1.858,0.123c0.218-0.496,0.342-0.744,0.401-2.48c0.063-1.705,0.188-10.076-0.093-12.061    c-0.155-1.209-0.465-1.488-0.807-1.799c2.512-0.124,3.316-0.527,4.093-0.93v3.286c0.373-0.961,1.146-3.101,4.248-3.101    c3.876,0,3.905,2.822,3.938,4.682L795.427,158.75L795.427,158.75z"
   id="path74" />
		<path
   fill="#FFFFFF"
   d="M817.496,160.486l-0.155,1.271h-10.447l0.095-6.014l-0.095-13.795h10.416l0.124,0.186l-0.186,1.271    l-4.619-0.063l-4.092,0.031l-0.063,7.471l3.875,0.031l3.317-0.031l0.124,0.155l-0.155,1.271l-7.161-0.03l-0.029,3.409l0.063,4.713    l3.999,0.03l4.867-0.093L817.496,160.486z"
   id="path76" />
		<path
   fill="#FFFFFF"
   d="M830.113,155.62l0.063,3.44c0,0.538,0.071,0.915,0.217,1.132c0.146,0.217,0.402,0.325,0.774,0.325    c0.352,0,0.733-0.103,1.146-0.31l0.219,0.155l-0.188,1.022c-0.496,0.311-1.021,0.476-1.581,0.496    c-1.179-0.042-1.817-0.775-1.922-2.201h-0.155c-0.641,0.641-1.261,1.137-1.858,1.488c-0.601,0.351-1.271,0.599-2.017,0.744    c-1.858,0-3.307-0.62-4.34-1.86c-1.034-1.24-1.551-2.976-1.551-5.208c0-2.354,0.59-4.18,1.768-5.472    c1.18-1.291,2.831-1.938,4.96-1.938c0.891,0,1.893,0.135,3.009,0.403v-7.688l1.581-0.154L830.113,155.62z M821.774,150.194    c-0.891,1.034-1.333,2.512-1.333,4.434c0,1.86,0.382,3.307,1.146,4.34c0.765,1.034,1.818,1.55,3.162,1.55    c0.724,0,1.405-0.181,2.046-0.542s1.271-0.936,1.893-1.721l0.03-2.511l-0.063-6.417c-1.098-0.455-2.149-0.683-3.162-0.683    C823.902,148.644,822.663,149.162,821.774,150.194z"
   id="path78" />
		<path
   fill="#FFFFFF"
   d="M837.661,141.949c0.176,0.186,0.264,0.434,0.264,0.743c0,0.331-0.093,0.595-0.278,0.791    c-0.187,0.196-0.443,0.294-0.773,0.294c-0.331,0-0.585-0.087-0.76-0.263c-0.178-0.176-0.266-0.429-0.266-0.76    c0-0.33,0.095-0.594,0.279-0.791c0.186-0.195,0.444-0.294,0.774-0.294C837.232,141.669,837.485,141.762,837.661,141.949z     M836.157,155.712l-0.03-7.937l1.55-0.186l-0.031,8.029l0.031,6.138h-1.581L836.157,155.712z"
   id="path80" />
		<path
   fill="#FFFFFF"
   d="M849.456,159.804l0.187,0.155l-0.153,1.116c-1.033,0.537-1.964,0.815-2.79,0.837    c-1.075-0.124-1.87-0.501-2.389-1.132c-0.517-0.63-0.773-1.534-0.773-2.713l0.063-2.789l-0.029-6.448h-1.923l-0.124-0.155    l0.124-0.992h1.923v-2.82l1.362-0.559l0.188,0.155l-0.031,3.224h4.495l0.124,0.155l-0.124,0.992h-4.495l-0.093,9.083    c0,0.889,0.176,1.545,0.525,1.968c0.353,0.424,0.89,0.636,1.611,0.636C847.855,160.517,848.63,160.28,849.456,159.804z"
   id="path82" />
		<path
   fill="#FFFFFF"
   d="M854.463,141.949c0.176,0.186,0.264,0.434,0.264,0.743c0,0.331-0.093,0.595-0.277,0.791    c-0.188,0.196-0.444,0.294-0.774,0.294c-0.331,0-0.585-0.087-0.76-0.263c-0.176-0.176-0.264-0.429-0.264-0.76    c0-0.33,0.093-0.594,0.277-0.791c0.188-0.195,0.444-0.294,0.774-0.294C854.034,141.669,854.287,141.762,854.463,141.949z     M852.959,155.712l-0.03-7.937l1.55-0.186l-0.029,8.029l0.029,6.138h-1.58L852.959,155.712z"
   id="path84" />
		<path
   fill="#FFFFFF"
   d="M869.374,149.311c1.043,1.25,1.565,2.991,1.565,5.224c0,2.335-0.55,4.153-1.646,5.456    c-1.096,1.302-2.614,1.952-4.557,1.952c-1.86,0-3.309-0.624-4.341-1.875c-1.033-1.25-1.552-2.98-1.552-5.192    c0-2.335,0.543-4.159,1.628-5.472s2.601-1.969,4.542-1.969C866.878,147.435,868.33,148.061,869.374,149.311z M861.577,150.194    c-0.806,1.034-1.209,2.491-1.209,4.371c0,1.984,0.388,3.509,1.162,4.573c0.773,1.064,1.864,1.596,3.271,1.596    c1.469,0,2.604-0.511,3.41-1.534c0.806-1.022,1.209-2.475,1.209-4.355c0-1.984-0.393-3.513-1.178-4.588    c-0.786-1.074-1.881-1.612-3.286-1.612C863.509,148.644,862.383,149.162,861.577,150.194z"
   id="path86" />
		<path
   fill="#FFFFFF"
   d="M883.835,151.993c0.021-0.992-0.223-1.762-0.729-2.31c-0.509-0.548-1.227-0.822-2.154-0.822    c-0.744,0-1.509,0.223-2.294,0.667c-0.786,0.444-1.54,1.08-2.264,1.906l-0.03,4.186l0.093,6.138h-1.612l0.095-6.045l-0.063-7.937    l1.519-0.186v2.263h0.155c0.702-0.682,1.433-1.229,2.188-1.643c0.754-0.413,1.48-0.661,2.186-0.744    c1.426,0,2.521,0.367,3.286,1.101s1.137,1.772,1.116,3.115l-0.031,3.968l0.063,6.107h-1.611L883.835,151.993z"
   id="path88" />
		
	</g>
	<g
   clip-path="url(#SVGID_2_)"
   id="g114">
		<path
   fill="#FFFFFF"
   d="M715.802,176.755h43.514v13.207h-27.121v10.377h24.881v13.207h-24.881v10.377h27.004v13.207h-43.396    V176.755L715.802,176.755z"
   id="path94" />
		<path
   fill="#FFFFFF"
   d="M767.674,191.849h15.448v8.608h0.471c1.889-5.66,6.692-9.198,12.974-9.198    c6.366,0,11.438,3.656,12.382,9.198h0.472c1.532-5.542,6.957-9.198,13.679-9.198c8.667,0,14.622,6.044,14.622,15.33v30.541    h-16.271v-26.414c0-3.95-2.184-6.367-5.542-6.367c-3.36,0-5.424,2.417-5.424,6.367v26.414h-15.566v-26.414    c0-3.95-2.181-6.367-5.542-6.367c-3.359,0-5.424,2.417-5.424,6.367v26.414h-16.273v-45.281H767.674z"
   id="path96" />
		<path
   fill="#FFFFFF"
   d="M845.72,191.849h15.447v8.608h0.473c1.889-5.66,6.691-9.198,12.973-9.198    c6.366,0,11.438,3.656,12.382,9.198h0.472c1.533-5.542,6.957-9.198,13.681-9.198c8.666,0,14.62,6.044,14.62,15.33v30.541h-16.271    v-26.414c0-3.95-2.183-6.367-5.542-6.367c-3.36,0-5.425,2.417-5.425,6.367v26.414H872.96v-26.414c0-3.95-2.182-6.367-5.543-6.367    c-3.36,0-5.424,2.417-5.424,6.367v26.414H845.72V191.849z"
   id="path98" />
		<path
   fill="#FFFFFF"
   d="M921.644,224.63c0-9.935,7.281-13.708,16.628-14.386c7.604-0.561,10.493-1.386,10.493-4.009v-0.118    c0-2.358-2.004-3.655-4.834-3.655c-3.096,0-5.159,1.326-5.543,4.127h-14.976c0.561-8.255,7.223-15.33,20.754-15.33    c12.941,0,20.873,6.486,20.873,14.858v31.013h-15.212v-6.367h-0.354c-2.742,5.07-7.191,7.074-13.089,7.074    C927.716,237.837,921.644,233.652,921.644,224.63z M948.883,221.093v-3.773c-1.71,0.707-3.892,1.238-6.484,1.65    c-3.772,0.59-5.426,2.389-5.426,4.717c0,2.536,1.946,3.892,4.717,3.892C945.375,227.579,948.883,225.22,948.883,221.093z"
   id="path100" />
		<path
   fill="#FFFFFF"
   d="M972.574,176.755h16.271v22.994h0.236c1.771-4.599,6.014-8.49,12.736-8.49    c8.961,0,17.688,6.84,17.688,23.23c0,15.684-8.137,23.229-17.807,23.229c-6.367,0-10.73-3.42-12.617-8.019h-0.354v7.429h-16.152    V176.755L972.574,176.755z M995.686,225.22c4.48,0,7.076-4.009,7.076-10.729c0-6.721-2.596-10.73-7.076-10.73    c-4.479,0-7.191,4.009-7.191,10.73C988.492,221.093,991.205,225.22,995.686,225.22z"
   id="path102" />
		<path
   fill="#FFFFFF"
   d="M1055.693,191.849h16.271v45.281h-15.447v-8.608h-0.473c-1.975,5.778-7.162,9.198-13.914,9.198    c-9.521,0-15.771-7.075-15.801-16.979V191.85h16.271v25.471c0.029,4.48,2.389,7.193,6.484,7.193c4.039,0,6.633-2.713,6.604-7.193    V191.85L1055.693,191.849L1055.693,191.849z"
   id="path104" />
		<path
   fill="#FFFFFF"
   d="M1096.482,237.13h-16.273v-45.281h15.447v8.608h0.473c1.977-5.72,7.252-9.198,13.914-9.198    c9.609,0,15.83,7.135,15.801,16.98v28.891h-16.271v-25.47c0.029-4.48-2.387-7.193-6.484-7.193c-4.039,0-6.572,2.713-6.604,7.193    L1096.482,237.13L1096.482,237.13z"
   id="path106" />
		<path
   fill="#FFFFFF"
   d="M1160.854,203.641h-7.779v18.926c0,1.887,0.941,2.83,3.063,2.83c0.975,0,2.564-0.324,3.186-0.472    l2.357,11.438c-1.475,0.442-4.217,1.209-7.898,1.415c-11.232,0.619-17.102-4.186-16.98-13.679V203.64h-5.779v-11.792h5.779V181    h16.273v10.849h7.779V203.641L1160.854,203.641z"
   id="path108" />
		<path
   fill="#FFFFFF"
   d="M1196.813,191.849h16.273v45.281h-15.449v-8.608h-0.471c-1.975,5.778-7.164,9.198-13.914,9.198    c-9.521,0-15.771-7.075-15.803-16.979V191.85h16.271v25.471c0.029,4.48,2.391,7.193,6.486,7.193c4.039,0,6.633-2.713,6.604-7.193    v-25.472H1196.813z M1173.818,179.704c0-3.773,3.184-6.84,7.191-6.84c3.893,0,7.074,3.066,7.074,6.84s-3.184,6.839-7.074,6.839    C1177.002,186.542,1173.818,183.477,1173.818,179.704z M1192.566,179.704c0-3.773,3.184-6.84,7.191-6.84    c3.895,0,7.076,3.066,7.076,6.84s-3.184,6.839-7.076,6.839C1195.75,186.542,1192.566,183.477,1192.566,179.704z"
   id="path110" />
		<path
   fill="#FFFFFF"
   d="M1247.74,206.589c-0.234-2.771-2.918-4.481-6.131-4.481c-2.803,0-5.129,1.062-5.07,2.948    c-0.059,1.326,0.914,2.564,4.363,3.184l9.197,1.651c9.256,1.68,13.736,5.571,13.797,12.264    c-0.061,9.698-9.287,15.801-21.816,15.801c-13.855,0-21.873-6.161-22.758-15.447h16.154c0.441,2.889,3.035,4.481,6.723,4.481    c2.977,0,5.129-1.063,5.188-2.948c-0.059-1.71-1.648-2.653-5.188-3.302l-8.021-1.415c-9.227-1.622-13.854-6.191-13.797-13.325    c-0.059-9.434,7.934-14.74,20.873-14.74c13.088,0,21.049,5.749,21.461,15.33L1247.74,206.589L1247.74,206.589z"
   id="path112" />
	</g>
	
		<radialGradient
   id="SVGID_5_"
   cx="-2594.9194"
   cy="-15720.9883"
   r="1002.5931"
   gradientTransform="matrix(-0.9546 -0.088 -0.0542 0.6142 -1491.9912 10410.7227)"
   gradientUnits="userSpaceOnUse">
		<stop
   offset="0"
   style="stop-color:#FFD88B"
   id="stop116" />
		<stop
   offset="0.3109"
   style="stop-color:#ECE5A6;stop-opacity:0.7513"
   id="stop118" />
		<stop
   offset="1"
   style="stop-color:#C3FFE0;stop-opacity:0.2"
   id="stop120" />
	</radialGradient>
	<polygon
   opacity="0.4"
   clip-path="url(#SVGID_2_)"
   fill="url(#SVGID_5_)"
   enable-background="new    "
   points="1941.748,1862.971    2048.547,503.316 1925,121.254 1674.775,759.314  "
   id="polygon123" />
	
		<radialGradient
   id="SVGID_6_"
   cx="-2368.168"
   cy="-15359.0566"
   r="794.1941"
   gradientTransform="matrix(-0.9546 -0.088 -0.0542 0.6142 -1491.9912 10410.7227)"
   gradientUnits="userSpaceOnUse">
		<stop
   offset="0"
   style="stop-color:#FFD88B"
   id="stop125" />
		<stop
   offset="0.3109"
   style="stop-color:#ECE5A6;stop-opacity:0.7513"
   id="stop127" />
		<stop
   offset="1"
   style="stop-color:#C3FFE0;stop-opacity:0.2"
   id="stop129" />
	</radialGradient>
	<polygon
   opacity="0.4"
   clip-path="url(#SVGID_2_)"
   fill="url(#SVGID_6_)"
   enable-background="new    "
   points="1170.314,1530.178    1689.24,642.466 1950.742,571.839 1941.748,1862.971  "
   id="polygon132" />
	
		<radialGradient
   id="SVGID_7_"
   cx="-3323.6704"
   cy="16330.5625"
   r="770.8215"
   gradientTransform="matrix(0.5888 0.7732 0.4759 -0.3789 -4354.9834 9763.6914)"
   gradientUnits="userSpaceOnUse">
		<stop
   offset="0"
   style="stop-color:#FFD88B"
   id="stop134" />
		<stop
   offset="0.3109"
   style="stop-color:#ECE5A6;stop-opacity:0.7513"
   id="stop136" />
		<stop
   offset="1"
   style="stop-color:#C3FFE0;stop-opacity:0.2"
   id="stop138" />
	</radialGradient>
	<polygon
   opacity="0.4"
   clip-path="url(#SVGID_2_)"
   fill="url(#SVGID_7_)"
   enable-background="new    "
   points="1950.742,571.839    1674.775,759.314 1115.537,1055.364 1054.785,1553.479  "
   id="polygon141" />
	
		<radialGradient
   id="SVGID_8_"
   cx="-2914.7637"
   cy="16929.8359"
   r="715.5895"
   gradientTransform="matrix(0.5888 0.7732 0.4759 -0.3789 -4354.9834 9763.6914)"
   gradientUnits="userSpaceOnUse">
		<stop
   offset="0"
   style="stop-color:#FFD88B"
   id="stop143" />
		<stop
   offset="0.3109"
   style="stop-color:#ECE5A6;stop-opacity:0.7513"
   id="stop145" />
		<stop
   offset="1"
   style="stop-color:#C3FFE0;stop-opacity:0.2"
   id="stop147" />
	</radialGradient>
	<polygon
   opacity="0.4"
   clip-path="url(#SVGID_2_)"
   fill="url(#SVGID_8_)"
   enable-background="new    "
   points="1950.742,571.839    1941.748,1862.971 1493.046,754.847 2093.24,411.059  "
   id="polygon150" />
	
		<radialGradient
   id="SVGID_9_"
   cx="-3125.2891"
   cy="16099.9063"
   r="654.5242"
   gradientTransform="matrix(0.5888 0.7732 0.4759 -0.3789 -4354.9834 9763.6914)"
   gradientUnits="userSpaceOnUse">
		<stop
   offset="0"
   style="stop-color:#FFD88B"
   id="stop152" />
		<stop
   offset="0.3109"
   style="stop-color:#ECE5A6;stop-opacity:0.7513"
   id="stop154" />
		<stop
   offset="1"
   style="stop-color:#C3FFE0;stop-opacity:0.2"
   id="stop156" />
	</radialGradient>
	<polygon
   opacity="0.4"
   clip-path="url(#SVGID_2_)"
   fill="url(#SVGID_9_)"
   enable-background="new    "
   points="1742.121,760.969    1493.046,754.847 1054.785,1553.479 1582.416,1626.121  "
   id="polygon159" />
	
		<radialGradient
   id="SVGID_10_"
   cx="-3180.124"
   cy="15646.3145"
   r="306.7748"
   gradientTransform="matrix(0.5888 0.7732 0.4759 -0.3789 -4354.9834 9763.6914)"
   gradientUnits="userSpaceOnUse">
		<stop
   offset="0"
   style="stop-color:#FFD88B"
   id="stop161" />
		<stop
   offset="0.3109"
   style="stop-color:#ECE5A6;stop-opacity:0.7513"
   id="stop163" />
		<stop
   offset="1"
   style="stop-color:#C3FFE0;stop-opacity:0.2"
   id="stop165" />
	</radialGradient>
	<polygon
   opacity="0.4"
   clip-path="url(#SVGID_2_)"
   fill="url(#SVGID_10_)"
   enable-background="new    "
   points="1013,1202    1115.537,1055.364 1333.537,1238.364 1272.785,1736.479  "
   id="polygon168" />
	<g
   clip-path="url(#SVGID_2_)"
   id="g198">
		<path
   fill="#FFFFFF"
   d="M644.509,121.15c10.219,0,18.506,8.283,18.506,18.504c0,4.789-1.838,9.143-4.825,12.428    c3.901,4.617,7.079,9.75,9.459,15.326c3.212,7.518,4.843,15.502,4.843,23.727c0,8.227-1.631,16.209-4.843,23.73    c-2.125,4.979-4.896,9.6-8.241,13.822c3.711,3.385,6.051,8.242,6.051,13.658c0,10.219-8.283,18.504-18.502,18.504    c-7.816,0-14.488-4.857-17.199-11.713c-5.998,1.898-12.242,2.869-18.633,2.869c-8.271,0-16.293-1.607-23.855-4.775    c-7.309-3.059-13.867-7.439-19.5-13.018c-5.641-5.588-10.07-12.098-13.172-19.348c-0.693-1.635-1.305-3.293-1.854-4.969    c-1.051,0.188-2.127,0.301-3.232,0.301c-10.221,0-18.504-8.287-18.504-18.506c0-10.217,8.283-18.5,18.504-18.5    c0.986,0,1.945,0.098,2.891,0.246c0.622-2.033,1.35-4.043,2.191-6.018c3.095-7.246,7.52-13.758,13.152-19.342    c5.629-5.578,12.184-9.961,19.48-13.023c7.557-3.172,15.576-4.781,23.842-4.789h0.057c5.58,0,11.045,0.748,16.334,2.197    C630.265,125.816,636.843,121.15,644.509,121.15 M611.122,232.098c22.861,0,41.459-18.375,41.459-40.963    c0-22.586-18.598-40.963-41.459-40.963h-0.047c-22.83,0.021-41.41,18.396-41.41,40.963    C569.665,213.721,588.263,232.098,611.122,232.098 M644.509,119.15c-7.677,0-14.625,4.249-18.149,10.961    c-4.983-1.226-10.103-1.846-15.236-1.846h-0.059c-8.535,0.008-16.816,1.672-24.612,4.945c-7.534,3.161-14.303,7.686-20.116,13.447    c-5.814,5.762-10.384,12.483-13.584,19.978c-0.635,1.486-1.223,3.035-1.754,4.619c-0.513-0.042-1.006-0.063-1.489-0.063    c-11.306,0-20.504,9.196-20.504,20.5c0,11.307,9.198,20.506,20.504,20.506c0.617,0,1.237-0.031,1.871-0.093    c0.438,1.238,0.891,2.408,1.375,3.543c3.203,7.493,7.78,14.215,13.604,19.986c5.815,5.762,12.592,10.284,20.137,13.441    c7.81,3.271,16.096,4.931,24.627,4.931c5.955,0,11.842-0.823,17.525-2.448c3.465,6.916,10.465,11.292,18.307,11.292    c11.305,0,20.502-9.198,20.502-20.504c0-5.118-1.947-10.063-5.396-13.83c2.994-4.004,5.488-8.324,7.428-12.866    c3.317-7.775,5.002-16.023,5.002-24.515c0-8.494-1.685-16.741-5.002-24.512c-2.224-5.209-5.146-10.09-8.702-14.532    c2.737-3.57,4.229-7.925,4.229-12.437C665.015,128.349,655.816,119.15,644.509,119.15L644.509,119.15z M611.122,230.098    c-21.757,0-39.457-17.479-39.457-38.963c0-21.464,17.68-38.942,39.412-38.963c21.803,0,39.504,17.479,39.504,38.963    C650.581,212.619,632.88,230.098,611.122,230.098L611.122,230.098z"
   id="path170" />
		<circle
   fill="#FFFFFF"
   cx="610.283"
   cy="191.496"
   r="44.825"
   id="circle172" />
		<g
   id="path1134-3-6-3-7-3_12_">
			<path
   fill="#0C5580"
   d="M549.509,173.191c10.219,0,18.5,8.283,18.5,18.5c0,10.219-8.281,18.506-18.5,18.506     c-10.221,0-18.504-8.287-18.504-18.506C531.005,181.475,539.288,173.191,549.509,173.191z"
   id="path174" />
		</g>
		<g
   id="path1134-3-6-3-7-5_12_">
			<path
   fill="#0C5580"
   d="M644.509,121.15c10.219,0,18.506,8.283,18.506,18.504c0,10.219-8.287,18.504-18.506,18.504     c-10.215,0-18.502-8.285-18.502-18.504C626.007,129.434,634.294,121.15,644.509,121.15z"
   id="path177" />
		</g>
		<g
   id="path1134-3-6-3-7_12_">
			<circle
   fill="#0C5580"
   cx="646.954"
   cy="242.347"
   r="18.503"
   id="circle180" />
		</g>
		<g
   id="path1132_12_">
			<path
   fill="#0C5580"
   d="M611.122,252.006L611.122,252.006c-8.271,0-16.293-1.607-23.855-4.775     c-7.309-3.059-13.868-7.439-19.5-13.018c-5.641-5.588-10.071-12.098-13.172-19.348c-3.211-7.521-4.836-15.504-4.836-23.73     c0-8.221,1.623-16.199,4.832-23.715c3.094-7.246,7.519-13.758,13.152-19.342c5.629-5.578,12.184-9.961,19.481-13.023     c7.556-3.172,15.576-4.781,23.841-4.789h0.057c8.268,0,16.295,1.604,23.859,4.773c7.303,3.059,13.864,7.441,19.5,13.021     c5.641,5.584,10.069,12.094,13.166,19.348c3.211,7.518,4.842,15.502,4.842,23.727c0,8.227-1.631,16.209-4.842,23.73     c-3.097,7.25-7.525,13.76-13.166,19.348c-5.636,5.578-12.197,9.959-19.5,13.018C627.417,250.398,619.39,252.006,611.122,252.006z      M611.075,150.172c-22.83,0.021-41.41,18.396-41.41,40.963c0,22.586,18.598,40.963,41.457,40.963     c22.861,0,41.459-18.375,41.459-40.963c0-22.586-18.598-40.963-41.459-40.963H611.075z"
   id="path183" />
		</g>
		<g
   id="path1134_12_">
			<circle
   fill="#FFD700"
   cx="644.509"
   cy="139.654"
   r="13.15"
   id="circle186" />
		</g>
		<g
   id="path1134-3_12_">
			<circle
   fill="#FFD700"
   cx="646.954"
   cy="242.347"
   r="13.153"
   id="circle189" />
		</g>
		<g
   id="path1134-3-6_12_">
			<path
   fill="#FFD700"
   d="M549.509,178.541c7.265,0,13.15,5.887,13.15,13.15s-5.888,13.154-13.15,13.154     c-7.266,0-13.153-5.891-13.153-13.154S542.243,178.541,549.509,178.541z"
   id="path192" />
		</g>
		<g
   id="path1897_12_">
			<path
   fill="#FFD700"
   d="M609.233,223.373c-7.076-0.328-13.8-2.947-19.255-7.502c-4.213-3.518-7.514-8.146-9.438-13.234     c-0.438-1.156-0.896-2.623-1.148-3.664c-0.057-0.234-0.108-0.447-0.116-0.469c-0.013-0.031,1.536-0.041,7.672-0.041h7.686     l0.229,0.471c0.631,1.271,1.508,2.598,2.442,3.686c0.447,0.523,1.357,1.43,1.881,1.875c1.771,1.508,3.763,2.629,5.964,3.357     c4.221,1.396,8.831,1.123,12.918-0.758c2.51-1.156,4.809-2.998,6.528-5.229c3.271-4.24,4.424-9.746,3.138-14.959     c-0.646-2.615-1.863-5.014-3.617-7.109c-0.414-0.498-1.293-1.402-1.787-1.838c-1.539-1.365-3.248-2.418-5.178-3.189     c-2.369-0.947-5.109-1.385-7.591-1.217c-2.381,0.166-4.483,0.719-6.573,1.73c-1.894,0.918-3.445,2.031-4.912,3.533     c-1.351,1.377-2.353,2.785-3.209,4.508l-0.242,0.482h-7.658c-4.215,0-7.67-0.008-7.68-0.018     c-0.023-0.025,0.246-1.082,0.453-1.781c1.649-5.598,4.776-10.639,9.039-14.566c5.276-4.867,11.914-7.814,19.041-8.461     c1.065-0.098,1.965-0.127,3.336-0.107c1.348,0.018,2.033,0.059,3.186,0.189c9.813,1.105,18.586,6.664,23.805,15.088     c3.988,6.432,5.576,14.082,4.49,21.621c-1.131,7.883-5.19,15.107-11.367,20.229c-3.682,3.051-8.063,5.27-12.727,6.436     C615.54,223.186,612.288,223.512,609.233,223.373z"
   id="path195" />
		</g>
	</g>
</g>
<text
   xml:space="preserve"
   style="font-style:normal;font-variant:normal;font-weight:normal;font-stretch:normal;font-size:29.4497px;line-height:1.25;font-family:Alegreya;-inkscape-font-specification:Alegreya;fill:#ffffff;fill-opacity:1;stroke:none;stroke-width:0.736243"
   x="894.24286"
   y="161.30212"
   id="text3026"
   inkscape:export-filename="/home/emmabuntus/Travail/EmmaDE5_64/emmabuntus_de_4/Ecrans/Fond_ecran_demarrage/theme_ice-main/SVG/text3026.png"
   inkscape:export-xdpi="96"
   inkscape:export-ydpi="96"><tspan
     sodipodi:role="line"
     id="tspan3024"
     x="894.24286"
     y="161.30212"
     style="stroke-width:0.736243;fill:#ffffff;fill-opacity:1">5</tspan></text></svg>
